8
11
14
6
16
8
20
5
2
1
15
11
12
3
9
13
12
20
11
2
2
13
17
16
20
11
3
18
7
16
11
3
2
13
16
17
11
2
15
7
3
4
18
12
8
19
15
14
16
18
6
6
8
19
17
11
17
4
13
7
11
10
14
4
11
11
15
1
9
3
16
4
17
12
15
14
7
3
3
7
8
6
11
16
4
20
11
12
18
7
1
3
12
20
13
12
16
8
15
20

