13
8
11
18
6
14
11
1
18
4
16
19
10
10
2
9
18
11
5
5
6
1
2
8
20
11
5
7
14
10
10
20
4
5
6
11
6
17
2
11
17
12
20
10
15
14
1
9
2
13
13
15
3
12
3
6
19
16
14
4
15
5
9
14
18
7
18
13
12
10
9
18
13
6
17
4
1
14
6
12
6
2
11
1
13
12
12
18
1
18
1
3
17
18
9
7
2
7
13
15

